EESchema Schematic File Version 4
LIBS:hello-attiny1614-blink-cache
EELAYER 30 0
EELAYER END
$Descr A4 11693 8268
encoding utf-8
Sheet 1 1
Title ""
Date ""
Rev ""
Comp ""
Comment1 ""
Comment2 ""
Comment3 ""
Comment4 ""
$EndDescr
$Comp
L hello-attiny1614-blink:ATtiny1614 U1
U 1 1 5E53D4D0
P 5850 3650
F 0 "U1" H 5850 4440 50  0000 C CNN
F 1 "ATtiny1614" H 5850 4349 50  0000 C CNN
F 2 "hello-attiny1614-blink:ATtiny1614-SOIC-14" H 5850 3650 50  0001 C CNN
F 3 "" H 5850 3650 50  0001 C CNN
	1    5850 3650
	1    0    0    -1  
$EndComp
$Comp
L Device:C C1
U 1 1 5E53E929
P 5850 2600
F 0 "C1" V 5598 2600 50  0000 C CNN
F 1 "1uF" V 5689 2600 50  0000 C CNN
F 2 "Capacitors_SMD:C_1206_HandSoldering" H 5888 2450 50  0001 C CNN
F 3 "~" H 5850 2600 50  0001 C CNN
	1    5850 2600
	0    1    1    0   
$EndComp
$Comp
L Connector_Generic:Conn_01x02 J1
U 1 1 5E540105
P 5900 4975
F 0 "J1" V 5772 5055 50  0000 L CNN
F 1 "Conn_01x02" V 5863 5055 50  0000 L CNN
F 2 "hello-attiny1614-blink:Conn_1x02_Pitch2.54mm" H 5900 4975 50  0001 C CNN
F 3 "~" H 5900 4975 50  0001 C CNN
	1    5900 4975
	0    1    1    0   
$EndComp
$Comp
L Connector_Generic:Conn_01x06 J2
U 1 1 5E54177B
P 9000 3550
F 0 "J2" H 9080 3542 50  0000 L CNN
F 1 "Conn_01x06" H 9080 3451 50  0000 L CNN
F 2 "hello-attiny1614-blink:Conn_1x06_Pitch2.54mm" H 9000 3550 50  0001 C CNN
F 3 "~" H 9000 3550 50  0001 C CNN
	1    9000 3550
	1    0    0    -1  
$EndComp
Wire Wire Line
	6550 3800 7125 3800
Wire Wire Line
	5900 4775 5900 4625
Wire Wire Line
	5900 4625 7100 4625
Text Label 7100 4625 2    50   ~ 0
UPDI
Text Label 7125 3800 2    50   ~ 0
UPDI
Text Label 6800 1625 0    50   ~ 0
GND
Wire Wire Line
	5800 4775 5800 4625
Wire Wire Line
	5800 4625 4850 4625
Text Label 4850 4625 0    50   ~ 0
GND
Wire Wire Line
	8800 3850 8375 3850
Wire Wire Line
	8800 3750 8375 3750
Wire Wire Line
	8800 3650 8375 3650
Wire Wire Line
	8800 3450 8375 3450
Wire Wire Line
	8800 3350 8375 3350
Text Label 8375 3350 0    50   ~ 0
GND
Text Label 8375 3450 0    50   ~ 0
CTS
Text Label 8375 3550 0    50   ~ 0
VCC
Text Label 8375 3650 0    50   ~ 0
TX
Text Label 8375 3750 0    50   ~ 0
RX
Text Label 8375 3850 0    50   ~ 0
RTS
NoConn ~ 8375 3450
NoConn ~ 8375 3850
Wire Wire Line
	5150 4000 4500 4000
Text Label 4500 4000 0    50   ~ 0
TX
Wire Wire Line
	5150 4175 4500 4175
Text Label 4500 4175 0    50   ~ 0
RX
Text Label 4900 1650 0    50   ~ 0
VCC
Wire Wire Line
	6550 3125 6800 3125
Wire Wire Line
	6800 3125 6800 2600
Wire Wire Line
	6800 2600 6000 2600
Wire Wire Line
	4900 3125 4900 2600
Wire Wire Line
	4900 2600 5700 2600
$Comp
L Device:LED D1
U 1 1 5E5480C6
P 6075 2050
F 0 "D1" H 6068 1795 50  0000 C CNN
F 1 "LED" H 6068 1886 50  0000 C CNN
F 2 "LEDs:LED_1206_HandSoldering" H 6075 2050 50  0001 C CNN
F 3 "~" H 6075 2050 50  0001 C CNN
	1    6075 2050
	-1   0    0    1   
$EndComp
$Comp
L Device:R R1
U 1 1 5E54A8B7
P 5600 2050
F 0 "R1" V 5807 2050 50  0000 C CNN
F 1 "499" V 5716 2050 50  0000 C CNN
F 2 "Resistors_SMD:R_1206_HandSoldering" V 5530 2050 50  0001 C CNN
F 3 "~" H 5600 2050 50  0001 C CNN
	1    5600 2050
	0    -1   -1   0   
$EndComp
Wire Wire Line
	6800 1625 6800 1825
Connection ~ 6800 2600
Wire Wire Line
	4900 1650 4900 1825
Connection ~ 4900 2600
Wire Wire Line
	5450 2050 4900 2050
Connection ~ 4900 2050
Wire Wire Line
	4900 2050 4900 2600
Wire Wire Line
	5750 2050 5925 2050
Wire Wire Line
	6225 2050 6800 2050
Connection ~ 6800 2050
Wire Wire Line
	6800 2050 6800 2600
$Comp
L Device:LED D2
U 1 1 5E550C5E
P 7000 4175
F 0 "D2" H 6993 3920 50  0000 C CNN
F 1 "LED" H 6993 4011 50  0000 C CNN
F 2 "LEDs:LED_1206_HandSoldering" H 7000 4175 50  0001 C CNN
F 3 "~" H 7000 4175 50  0001 C CNN
	1    7000 4175
	-1   0    0    1   
$EndComp
$Comp
L Device:R R2
U 1 1 5E551F15
P 7575 4175
F 0 "R2" V 7782 4175 50  0000 C CNN
F 1 "499" V 7691 4175 50  0000 C CNN
F 2 "Resistors_SMD:R_1206_HandSoldering" V 7505 4175 50  0001 C CNN
F 3 "~" H 7575 4175 50  0001 C CNN
	1    7575 4175
	0    -1   -1   0   
$EndComp
Wire Wire Line
	6550 4175 6850 4175
Wire Wire Line
	7150 4175 7425 4175
Wire Wire Line
	7725 4175 8175 4175
Text Label 8175 4175 2    50   ~ 0
GND
NoConn ~ 6550 3300
NoConn ~ 6550 3475
NoConn ~ 6550 3650
NoConn ~ 6550 4000
NoConn ~ 5150 3825
NoConn ~ 5150 3650
NoConn ~ 5150 3475
NoConn ~ 5150 3300
Wire Wire Line
	4900 3125 5150 3125
Wire Wire Line
	8800 3550 8375 3550
$Comp
L power:PWR_FLAG #FLG0101
U 1 1 5E55B2E9
P 4900 1825
F 0 "#FLG0101" H 4900 1900 50  0001 C CNN
F 1 "PWR_FLAG" V 4900 1952 50  0000 L CNN
F 2 "" H 4900 1825 50  0001 C CNN
F 3 "~" H 4900 1825 50  0001 C CNN
	1    4900 1825
	0    -1   -1   0   
$EndComp
Connection ~ 4900 1825
Wire Wire Line
	4900 1825 4900 2050
$Comp
L power:PWR_FLAG #FLG0102
U 1 1 5E55CDB7
P 6800 1825
F 0 "#FLG0102" H 6800 1900 50  0001 C CNN
F 1 "PWR_FLAG" V 6800 1953 50  0000 L CNN
F 2 "" H 6800 1825 50  0001 C CNN
F 3 "~" H 6800 1825 50  0001 C CNN
	1    6800 1825
	0    1    1    0   
$EndComp
Connection ~ 6800 1825
Wire Wire Line
	6800 1825 6800 2050
$EndSCHEMATC
